{
  "Helmet":{
    "Size":43,
    "Price":100,
    "Weight":2000,
    "Color":"black",
    "Material":"carbon",
    "Opened":true,
    "HavingGlass":true,
    "VentilationHoles":8
  },
  "Body":{
    "Size":45,
    "Price":150,
    "Weight":2500,
    "Color":"black",
    "Material":"leather",
    "ProtectionType":"built-in protection",
    "HavingVentilation":true
  },
  "Gloves":{
    "Size":30,
    "Price":50,
    "Weight":300,
    "Color":"black",
    "Material":"cloth",
    "Length":"long"
  },
  "Boots":{
    "Size":43,
    "Price":75,
    "Weight":1500,
    "Color":"black",
    "Material":"leather",
    "SoleStiffness":"hard"
  }
}